{
  "resourceName": "imageStorage",
  "policyUUID": "5a425511",
  "bucketName": "nubercf567be31cd9437ca75923449b5e6de7",
  "storageAccess": "auth",
  "guestAccess": [],
  "authAccess": [
    "CREATE_AND_UPDATE",
    "READ",
    "DELETE"
  ],
  "triggerFunction": "NONE",
  "groupAccess": {}
}